nohup: ignoring input
2020-11-04 03:44:23,607 - INFO - test
2020-11-04 03:44:23,607 - INFO - running 'tf.config.list_physical_devices('GPU')'
2020-11-04 03:44:23.609193: I tensorflow/stream_executor/platform/default/dso_loader.cc:44] Successfully opened dynamic library libcuda.so.1
2020-11-04 03:44:23.690932: I tensorflow/core/common_runtime/gpu/gpu_device.cc:1561] Found device 0 with properties: 
pciBusID: 0000:06:00.0 name: Tesla V100-SXM2-16GB computeCapability: 7.0
coreClock: 1.53GHz coreCount: 80 deviceMemorySize: 15.78GiB deviceMemoryBandwidth: 836.37GiB/s
2020-11-04 03:44:23.691310: I tensorflow/stream_executor/platform/default/dso_loader.cc:44] Successfully opened dynamic library libcudart.so.10.1
2020-11-04 03:44:23.693378: I tensorflow/stream_executor/platform/default/dso_loader.cc:44] Successfully opened dynamic library libcublas.so.10
2020-11-04 03:44:23.695461: I tensorflow/stream_executor/platform/default/dso_loader.cc:44] Successfully opened dynamic library libcufft.so.10
2020-11-04 03:44:23.695816: I tensorflow/stream_executor/platform/default/dso_loader.cc:44] Successfully opened dynamic library libcurand.so.10
2020-11-04 03:44:23.698094: I tensorflow/stream_executor/platform/default/dso_loader.cc:44] Successfully opened dynamic library libcusolver.so.10
2020-11-04 03:44:23.699246: I tensorflow/stream_executor/platform/default/dso_loader.cc:44] Successfully opened dynamic library libcusparse.so.10
2020-11-04 03:44:23.703434: I tensorflow/stream_executor/platform/default/dso_loader.cc:44] Successfully opened dynamic library libcudnn.so.7
2020-11-04 03:44:23.706289: I tensorflow/core/common_runtime/gpu/gpu_device.cc:1703] Adding visible gpu devices: 0
2020-11-04 03:44:23,706 - INFO - [PhysicalDevice(name='/physical_device:GPU:0', device_type='GPU')]
2020-11-04 03:44:23,706 - INFO - running 'nvidia-smi -L'
GPU 0: Tesla V100-SXM2-16GB (UUID: GPU-02d6e144-a6ba-2b84-3467-ad78793b43e4)
GPU 1: Tesla V100-SXM2-16GB (UUID: GPU-3373bbe4-760e-7251-acff-4b96025e29c9)
GPU 2: Tesla V100-SXM2-16GB (UUID: GPU-cc524b44-3d44-3fbb-f1df-55fbacdac511)
GPU 3: Tesla V100-SXM2-16GB (UUID: GPU-2ca1acd3-8548-f1ab-9cff-d88cd78f22b3)
GPU 4: Tesla V100-SXM2-16GB (UUID: GPU-fc6bbb36-aceb-8e1c-696a-5cb387a9e3f7)
GPU 5: Tesla V100-SXM2-16GB (UUID: GPU-24dfc962-56c5-3235-5793-078ab7ccfb99)
GPU 6: Tesla V100-SXM2-16GB (UUID: GPU-40ddec26-5382-8ffb-f8be-51fefe48f4fa)
GPU 7: Tesla V100-SXM2-16GB (UUID: GPU-c502648a-203b-f3c2-66a7-1f6f63f08838)
2020-11-04 03:44:23,791 - INFO - training set size: (250000, 2)
2020-11-04 03:44:23,791 - INFO - batch size: 2500
2020-11-04 03:44:23,791 - INFO - tag: model_01
2020-11-04 03:44:23,792 - INFO - fitting model_01
2020-11-04 03:44:23.805745: I tensorflow/core/platform/cpu_feature_guard.cc:143] Your CPU supports instructions that this TensorFlow binary was not compiled to use: AVX2 FMA
2020-11-04 03:44:23.815945: I tensorflow/core/platform/profile_utils/cpu_utils.cc:102] CPU Frequency: 2195265000 Hz
2020-11-04 03:44:23.819495: I tensorflow/compiler/xla/service/service.cc:168] XLA service 0x5627808da4a0 initialized for platform Host (this does not guarantee that XLA will be used). Devices:
2020-11-04 03:44:23.819520: I tensorflow/compiler/xla/service/service.cc:176]   StreamExecutor device (0): Host, Default Version
2020-11-04 03:44:23.977076: I tensorflow/compiler/xla/service/service.cc:168] XLA service 0x562780944d20 initialized for platform CUDA (this does not guarantee that XLA will be used). Devices:
2020-11-04 03:44:23.977132: I tensorflow/compiler/xla/service/service.cc:176]   StreamExecutor device (0): Tesla V100-SXM2-16GB, Compute Capability 7.0
2020-11-04 03:44:23.978926: I tensorflow/core/common_runtime/gpu/gpu_device.cc:1561] Found device 0 with properties: 
pciBusID: 0000:06:00.0 name: Tesla V100-SXM2-16GB computeCapability: 7.0
coreClock: 1.53GHz coreCount: 80 deviceMemorySize: 15.78GiB deviceMemoryBandwidth: 836.37GiB/s
2020-11-04 03:44:23.978984: I tensorflow/stream_executor/platform/default/dso_loader.cc:44] Successfully opened dynamic library libcudart.so.10.1
2020-11-04 03:44:23.979009: I tensorflow/stream_executor/platform/default/dso_loader.cc:44] Successfully opened dynamic library libcublas.so.10
2020-11-04 03:44:23.979035: I tensorflow/stream_executor/platform/default/dso_loader.cc:44] Successfully opened dynamic library libcufft.so.10
2020-11-04 03:44:23.979057: I tensorflow/stream_executor/platform/default/dso_loader.cc:44] Successfully opened dynamic library libcurand.so.10
2020-11-04 03:44:23.979078: I tensorflow/stream_executor/platform/default/dso_loader.cc:44] Successfully opened dynamic library libcusolver.so.10
2020-11-04 03:44:23.979099: I tensorflow/stream_executor/platform/default/dso_loader.cc:44] Successfully opened dynamic library libcusparse.so.10
2020-11-04 03:44:23.979120: I tensorflow/stream_executor/platform/default/dso_loader.cc:44] Successfully opened dynamic library libcudnn.so.7
2020-11-04 03:44:23.981944: I tensorflow/core/common_runtime/gpu/gpu_device.cc:1703] Adding visible gpu devices: 0
2020-11-04 03:44:23.981985: I tensorflow/stream_executor/platform/default/dso_loader.cc:44] Successfully opened dynamic library libcudart.so.10.1
2020-11-04 03:44:23.984059: I tensorflow/core/common_runtime/gpu/gpu_device.cc:1102] Device interconnect StreamExecutor with strength 1 edge matrix:
2020-11-04 03:44:23.984080: I tensorflow/core/common_runtime/gpu/gpu_device.cc:1108]      0 
2020-11-04 03:44:23.984092: I tensorflow/core/common_runtime/gpu/gpu_device.cc:1121] 0:   N 
2020-11-04 03:44:23.986974: I tensorflow/core/common_runtime/gpu/gpu_device.cc:1247] Created TensorFlow device (/job:localhost/replica:0/task:0/device:GPU:0 with 14892 MB memory) -> physical GPU (device: 0, name: Tesla V100-SXM2-16GB, pci bus id: 0000:06:00.0, compute capability: 7.0)
2020-11-04 03:44:27.100049: I tensorflow/stream_executor/platform/default/dso_loader.cc:44] Successfully opened dynamic library libcublas.so.10
2020-11-04 05:05:23,647 - INFO - model_01 fit
2020-11-04 05:05:23,648 - INFO - The time cost: 1:20:59.855338
2020-11-04 05:05:31,344 - INFO - mse: 2.4603957626823103e-06
2020-11-04 05:05:34,881 - INFO - tag: model_02
2020-11-04 05:05:34,881 - INFO - fitting model_02
2020-11-04 06:26:36,402 - INFO - model_02 fit
2020-11-04 06:26:36,403 - INFO - The time cost: 1:21:01.520874
2020-11-04 06:26:43,661 - INFO - mse: 2.5235726752725895e-06
2020-11-04 06:26:47,496 - INFO - working: 3
2020-11-04 06:26:47,496 - INFO - tag: model_03
2020-11-04 06:26:47,496 - INFO - fitting model_03
2020-11-04 06:47:41,598 - INFO - model_03 fit
2020-11-04 06:47:41,599 - INFO - The time cost: 0:20:54.101704
2020-11-04 06:47:51,065 - INFO - mse: 2.850348664651392e-06
2020-11-04 06:47:54,319 - INFO - working: 4
2020-11-04 06:47:54,319 - INFO - tag: model_04
2020-11-04 06:47:54,319 - INFO - fitting model_04
2020-11-04 07:09:18,746 - INFO - model_04 fit
2020-11-04 07:09:18,746 - INFO - The time cost: 0:21:24.426579
2020-11-04 07:09:28,529 - INFO - mse: 0.0001326983328908682
2020-11-04 07:09:32,003 - INFO - The time cost: 3:25:08.395140
2020-11-04 07:09:32,003 - INFO - done!
