2022-06-21 15:40:30.534617: I tensorflow/core/platform/cpu_feature_guard.cc:193] This TensorFlow binary is optimized with oneAPI Deep Neural Network Library (oneDNN) to use the following CPU instructions in performance-critical operations:  AVX2 FMA
To enable them in other operations, rebuild TensorFlow with the appropriate compiler flags.
2022-06-21 15:40:31.963358: I tensorflow/core/common_runtime/gpu/gpu_device.cc:1532] Created device /job:localhost/replica:0/task:0/device:GPU:0 with 78119 MB memory:  -> device: 0, name: NVIDIA A100-SXM4-80GB, pci bus id: 0000:41:00.0, compute capability: 8.0
2022-06-21 15:40:35.255852: I tensorflow/stream_executor/cuda/cuda_blas.cc:1786] TensorFloat-32 will be used for the matrix multiplication. This will only be logged once.
2022-06-21 15:40:35.255929: I tensorflow/stream_executor/cuda/cuda_blas.cc:1786] TensorFloat-32 will be used for the matrix multiplication. This will only be logged once.
2022-06-21 15:40:39.143037: I tensorflow/compiler/xla/service/service.cc:170] XLA service 0x558189b0f570 initialized for platform CUDA (this does not guarantee that XLA will be used). Devices:
2022-06-21 15:40:39.143112: I tensorflow/compiler/xla/service/service.cc:178]   StreamExecutor device (0): NVIDIA A100-SXM4-80GB, Compute Capability 8.0
2022-06-21 15:40:39.154527: I tensorflow/compiler/mlir/tensorflow/utils/dump_mlir_util.cc:263] disabling MLIR crash reproducer, set env var `MLIR_CRASH_REPRODUCER_DIRECTORY` to enable.
2022-06-21 15:43:53.212007: I tensorflow/core/platform/default/subprocess.cc:304] Start cannot spawn child process: No such file or directory
2022-06-21 15:43:53.706235: I tensorflow/compiler/jit/xla_compilation_cache.cc:478] Compiled cluster using XLA!  This line is logged at most once for the lifetime of the process.
